1,"in a yellow front room.",0,2,0,8
2,"by a TV set and a recorder.",3,0,0,1
3,"in the kitchen.",0,0,2,4
4,"in a storage room.",0,3,0,5
5,"at the back of a hallway.",0,4,8,6
6,"on the edge of a high table.",0,5,7,0
7,"at the base of a tall plastic tree on the edge of a high table.,6,8,0,0
8,"outside the open door of an oddly proportioned house.,5,0,0,7
9,"by a railway siding.",13,0,10,0
10,"by a large switch connected to the railway tracks.",9,11,0,0
11,"alongside the winding track.",0,12,0,10
12,"at the end of the line, the track disappears through a hole in the wall.",0,0,0,11
13,"at a mouse-hole in a corner of the room.",0,0,9,14
14,"inside the mouse-hole, it is very dark in here.",0,13,15,0
15,"further down a dark smelly tunnel.",14,0,16,0
16,"ay the end of a darn tunnel.",15,0,17,0
17,"on a shelf of disturbing apparatus, there is a stool nearby.",16,18,0,0
18,"on a short step stool.",0,19,0,17
19,"on the floor of an overturned box of electronic parts.",0,20,0,18
20,"at a hole in the wall from which a railway line emerges.",0,21,0,19
21,"at the base of a swivel chair.",24,22,0,20
22,"standing on a computer terminal.",23,0,0,21
23,"standing on the maximiser pad.",0,0,22,0
24,"below a whole wall of oversized screens.",0,0,21,0
