^C:\USERS\ROBB\DOCUMENTS\UNI\C++\ASSIGNMENT 3\MICROPUZZLE\MICROPUZZLE\GAME.CPP
/c /ZI /nologo /W3 /WX- /Od /Oy- /D _MBCS /Gm /EHsc /RTCc /RTC1 /MDd /GS /fp:precise /Zc:wchar_t /Zc:forScope /Fo"DEBUG\\" /Fd"DEBUG\VC120.PDB" /Gd /TP /analyze- /GZ  C:\USERS\ROBB\DOCUMENTS\UNI\C++\ASSIGNMENT 3\MICROPUZZLE\MICROPUZZLE\GAME.CPP
^C:\USERS\ROBB\DOCUMENTS\UNI\C++\ASSIGNMENT 3\MICROPUZZLE\MICROPUZZLE\INVERNTORY.CPP
/c /ZI /nologo /W3 /WX- /Od /Oy- /D _MBCS /Gm /EHsc /RTCc /RTC1 /MDd /GS /fp:precise /Zc:wchar_t /Zc:forScope /Fo"DEBUG\\" /Fd"DEBUG\VC120.PDB" /Gd /TP /analyze- /GZ  C:\USERS\ROBB\DOCUMENTS\UNI\C++\ASSIGNMENT 3\MICROPUZZLE\MICROPUZZLE\INVERNTORY.CPP
^C:\USERS\ROBB\DOCUMENTS\UNI\C++\ASSIGNMENT 3\MICROPUZZLE\MICROPUZZLE\ITEM.CPP
/c /ZI /nologo /W3 /WX- /Od /Oy- /D _MBCS /Gm /EHsc /RTCc /RTC1 /MDd /GS /fp:precise /Zc:wchar_t /Zc:forScope /Fo"DEBUG\\" /Fd"DEBUG\VC120.PDB" /Gd /TP /analyze- /GZ  C:\USERS\ROBB\DOCUMENTS\UNI\C++\ASSIGNMENT 3\MICROPUZZLE\MICROPUZZLE\ITEM.CPP
^C:\USERS\ROBB\DOCUMENTS\UNI\C++\ASSIGNMENT 3\MICROPUZZLE\MICROPUZZLE\MAIN.CPP
/c /ZI /nologo /W3 /WX- /Od /Oy- /D _MBCS /Gm /EHsc /RTCc /RTC1 /MDd /GS /fp:precise /Zc:wchar_t /Zc:forScope /Fo"DEBUG\\" /Fd"DEBUG\VC120.PDB" /Gd /TP /analyze- /GZ  C:\USERS\ROBB\DOCUMENTS\UNI\C++\ASSIGNMENT 3\MICROPUZZLE\MICROPUZZLE\MAIN.CPP
^C:\USERS\ROBB\DOCUMENTS\UNI\C++\ASSIGNMENT 3\MICROPUZZLE\MICROPUZZLE\MAP.CPP
/c /ZI /nologo /W3 /WX- /Od /Oy- /D _MBCS /Gm /EHsc /RTCc /RTC1 /MDd /GS /fp:precise /Zc:wchar_t /Zc:forScope /Fo"DEBUG\\" /Fd"DEBUG\VC120.PDB" /Gd /TP /analyze- /GZ  C:\USERS\ROBB\DOCUMENTS\UNI\C++\ASSIGNMENT 3\MICROPUZZLE\MICROPUZZLE\MAP.CPP
^C:\USERS\ROBB\DOCUMENTS\UNI\C++\ASSIGNMENT 3\MICROPUZZLE\MICROPUZZLE\ROOM.CPP
/c /ZI /nologo /W3 /WX- /Od /Oy- /D _MBCS /Gm /EHsc /RTCc /RTC1 /MDd /GS /fp:precise /Zc:wchar_t /Zc:forScope /Fo"DEBUG\\" /Fd"DEBUG\VC120.PDB" /Gd /TP /analyze- /GZ  C:\USERS\ROBB\DOCUMENTS\UNI\C++\ASSIGNMENT 3\MICROPUZZLE\MICROPUZZLE\ROOM.CPP
