^C:\USERS\ROBB\DOCUMENTS\UNI\C++\ASSIGNMENT 3\MICROPUZZLE\MICROPUZZLE\DEBUG\GAME.OBJ|C:\USERS\ROBB\DOCUMENTS\UNI\C++\ASSIGNMENT 3\MICROPUZZLE\MICROPUZZLE\DEBUG\INVERNTORY.OBJ|C:\USERS\ROBB\DOCUMENTS\UNI\C++\ASSIGNMENT 3\MICROPUZZLE\MICROPUZZLE\DEBUG\ITEM.OBJ|C:\USERS\ROBB\DOCUMENTS\UNI\C++\ASSIGNMENT 3\MICROPUZZLE\MICROPUZZLE\DEBUG\MAIN.OBJ|C:\USERS\ROBB\DOCUMENTS\UNI\C++\ASSIGNMENT 3\MICROPUZZLE\MICROPUZZLE\DEBUG\MAP.OBJ|C:\USERS\ROBB\DOCUMENTS\UNI\C++\ASSIGNMENT 3\MICROPUZZLE\MICROPUZZLE\DEBUG\ROOM.OBJ
C:\USERS\ROBB\DOCUMENTS\UNI\C++\ASSIGNMENT 3\MICROPUZZLE\DEBUG\MICROPUZZLE.ILK
C:\USERS\ROBB\DOCUMENTS\UNI\C++\ASSIGNMENT 3\MICROPUZZLE\DEBUG\MICROPUZZLE.EXE
C:\USERS\ROBB\DOCUMENTS\UNI\C++\ASSIGNMENT 3\MICROPUZZLE\DEBUG\MICROPUZZLE.PDB
